DP	DT
BAR	K
-0.102 0.001
-0.292 -0.120
-0.498 -0.345
-0.704 -0.587
-0.894 -0.817
-1.100 -1.036
-1.298 -1.275
-1.507 -1.477
-1.692 -1.731
-1.518 -1.611
-1.307 -1.401
-1.105 -1.203
-0.902 -1.053
-0.692 -0.801
-0.496 -0.620
-0.303 -0.404
-0.099 -0.213