DP	DT
BAR	K
-0.079 0.005
-0.304 0.003
-0.501 -0.013
-0.695 -0.054
-0.901 -0.091
-1.111 -0.132
-1.302 -0.177
-1.516 -0.228
-1.703 -0.257
-1.495 -0.236
-1.294 -0.212
-1.082 -0.171
-0.918 -0.146
-0.703 -0.140
-0.507 -0.078
-0.311 -0.055
-0.086 -0.018